%YAML 1.1
%TAG !u! tag:unity3d.com,2011:
--- !u!74 &7400000
AnimationClip:
  m_ObjectHideFlags: 0
  m_CorrespondingSourceObject: {fileID: 0}
  m_PrefabInstance: {fileID: 0}
  m_PrefabAsset: {fileID: 0}
  m_Name: Animation_SpiritBuyWait
  serializedVersion: 6
  m_Legacy: 0
  m_Compressed: 0
  m_UseHighQualityCurve: 1
  m_RotationCurves: []
  m_CompressedRotationCurves: []
  m_EulerCurves: []
  m_PositionCurves: []
  m_ScaleCurves: []
  m_FloatCurves: []
  m_PPtrCurves:
  - curve:
    - time: 0
      value: {fileID: -4495241313455134876, guid: 2c80bcc9ae6c99140b4215b5f83349f6,
        type: 3}
    - time: 0.1
      value: {fileID: -1597186695577247525, guid: 2c80bcc9ae6c99140b4215b5f83349f6,
        type: 3}
    - time: 0.2
      value: {fileID: -2741653067527045967, guid: 2c80bcc9ae6c99140b4215b5f83349f6,
        type: 3}
    - time: 0.3
      value: {fileID: 3403535614412769376, guid: 2c80bcc9ae6c99140b4215b5f83349f6,
        type: 3}
    - time: 0.4
      value: {fileID: -3030716534681298976, guid: 2c80bcc9ae6c99140b4215b5f83349f6,
        type: 3}
    - time: 0.5
      value: {fileID: 1520555790944479009, guid: 2c80bcc9ae6c99140b4215b5f83349f6,
        type: 3}
    - time: 0.6
      value: {fileID: 6736176414382493717, guid: 2c80bcc9ae6c99140b4215b5f83349f6,
        type: 3}
    - time: 0.7
      value: {fileID: -2757418248231178672, guid: 2c80bcc9ae6c99140b4215b5f83349f6,
        type: 3}
    - time: 0.8
      value: {fileID: -2955779382966094902, guid: 2c80bcc9ae6c99140b4215b5f83349f6,
        type: 3}
    - time: 0.9
      value: {fileID: -3492512603655041380, guid: 2c80bcc9ae6c99140b4215b5f83349f6,
        type: 3}
    attribute: m_Sprite
    path: 
    classID: 114
    script: {fileID: -765806418, guid: f70555f144d8491a825f0804e09c671c, type: 3}
  m_SampleRate: 10
  m_WrapMode: 0
  m_Bounds:
    m_Center: {x: 0, y: 0, z: 0}
    m_Extent: {x: 0, y: 0, z: 0}
  m_ClipBindingConstant:
    genericBindings:
    - serializedVersion: 2
      path: 0
      attribute: 2015549526
      script: {fileID: -765806418, guid: f70555f144d8491a825f0804e09c671c, type: 3}
      typeID: 114
      customType: 0
      isPPtrCurve: 1
    pptrCurveMapping:
    - {fileID: -4495241313455134876, guid: 2c80bcc9ae6c99140b4215b5f83349f6, type: 3}
    - {fileID: -1597186695577247525, guid: 2c80bcc9ae6c99140b4215b5f83349f6, type: 3}
    - {fileID: -2741653067527045967, guid: 2c80bcc9ae6c99140b4215b5f83349f6, type: 3}
    - {fileID: 3403535614412769376, guid: 2c80bcc9ae6c99140b4215b5f83349f6, type: 3}
    - {fileID: -3030716534681298976, guid: 2c80bcc9ae6c99140b4215b5f83349f6, type: 3}
    - {fileID: 1520555790944479009, guid: 2c80bcc9ae6c99140b4215b5f83349f6, type: 3}
    - {fileID: 6736176414382493717, guid: 2c80bcc9ae6c99140b4215b5f83349f6, type: 3}
    - {fileID: -2757418248231178672, guid: 2c80bcc9ae6c99140b4215b5f83349f6, type: 3}
    - {fileID: -2955779382966094902, guid: 2c80bcc9ae6c99140b4215b5f83349f6, type: 3}
    - {fileID: -3492512603655041380, guid: 2c80bcc9ae6c99140b4215b5f83349f6, type: 3}
  m_AnimationClipSettings:
    serializedVersion: 2
    m_AdditiveReferencePoseClip: {fileID: 0}
    m_AdditiveReferencePoseTime: 0
    m_StartTime: 0
    m_StopTime: 1
    m_OrientationOffsetY: 0
    m_Level: 0
    m_CycleOffset: 0
    m_HasAdditiveReferencePose: 0
    m_LoopTime: 1
    m_LoopBlend: 0
    m_LoopBlendOrientation: 0
    m_LoopBlendPositionY: 0
    m_LoopBlendPositionXZ: 0
    m_KeepOriginalOrientation: 0
    m_KeepOriginalPositionY: 1
    m_KeepOriginalPositionXZ: 0
    m_HeightFromFeet: 0
    m_Mirror: 0
  m_EditorCurves: []
  m_EulerEditorCurves: []
  m_HasGenericRootTransform: 0
  m_HasMotionFloatCurves: 0
  m_Events: []
