﻿,Name Tag,Flavor Tag,Level,Exp,Souls,Move Speed,Max Life,Offense,Defense,Force,Weight,Kinematic,Arcane,Fire,Water,Wind,Earth,Light,Darkness
IronMouthTurtle,T,T,1,50,10,3,20,30,30,0,0,0,0,0,0,0,0,0,0
Bloodwolf,T,T,1,50,10,10,20,30,30,0,0,0,0,0,0,0,0,0,0
LavacradleLobsterSoldier,T,T,1,50,10,5,20,30,30,0,0,0,0,0,0,0,0,0,0
WraithInTheFlask,T,T,1,500,100,2,80,90,0,0,10,0,140,0,0,0,0,140,140
LowForestAttacker,T,T,1,500,100,6,160,100,0,0,0,0,0,0,65,0,105,0,0
AbandonedJotunheimKnight,T,T,1,500,100,4,220,100,0,0,0,60,0,0,180,0,20,0,30
FailedChimeraProfessor,T,T,1,5000,1000,1,600,285,140,0,20,0,215,0,0,0,0,0,0
ViciousPrimordialGorilla,T,T,1,5000,1000,4,445,190,75,0,20,55,0,0,0,0,155,0,0
IceclawBear,T,T,1,5000,1000,3,380,160,120,0,20,240,40,0,110,0,0,0,0
RedFlameGiant,T,T,1,5000,1000,3,680,310,160,0,20,160,120,280,40,80,240,40,100
