%YAML 1.1
%TAG !u! tag:unity3d.com,2011:
--- !u!221 &22100000
AnimatorOverrideController:
  m_ObjectHideFlags: 0
  m_CorrespondingSourceObject: {fileID: 0}
  m_PrefabInstance: {fileID: 0}
  m_PrefabAsset: {fileID: 0}
  m_Name: AnimatorOverride_Mosnter_Bottom_Normal_ViciousPrimordialGorilla
  m_Controller: {fileID: 9100000, guid: 971ede790de37044ea6642812c6ed3c4, type: 2}
  m_Clips:
  - m_OriginalClip: {fileID: 7400000, guid: 2f165fff87a318246a9d3bb557fdcdf9, type: 2}
    m_OverrideClip: {fileID: 7400000, guid: d7811dcd6526ffe4dbd325aa525fa90e, type: 2}
  - m_OriginalClip: {fileID: 7400000, guid: fcb14b916b4146a48825fd7370ad9fea, type: 2}
    m_OverrideClip: {fileID: 7400000, guid: 2058f7027da0a10438bdfbfc4dbe974d, type: 2}
  - m_OriginalClip: {fileID: 7400000, guid: 7363c14920ab90e468142f2020ca13a4, type: 2}
    m_OverrideClip: {fileID: 7400000, guid: 76152d1bdc2aa8148a27152984e2629c, type: 2}
  - m_OriginalClip: {fileID: 7400000, guid: 6f308447ee580124fad0d16c13e15e2b, type: 2}
    m_OverrideClip: {fileID: 7400000, guid: ee7831b14b66c6048ad989927a96ea95, type: 2}
  - m_OriginalClip: {fileID: 7400000, guid: 37faa3c37a099d242bf3600c7980b81e, type: 2}
    m_OverrideClip: {fileID: 7400000, guid: 7bd0f1eac2ce5e44fbd8aeef6fa06f6f, type: 2}
