%YAML 1.1
%TAG !u! tag:unity3d.com,2011:
--- !u!74 &7400000
AnimationClip:
  m_ObjectHideFlags: 0
  m_CorrespondingSourceObject: {fileID: 0}
  m_PrefabInstance: {fileID: 0}
  m_PrefabAsset: {fileID: 0}
  m_Name: Sanctuary_Animation_Tree
  serializedVersion: 6
  m_Legacy: 0
  m_Compressed: 0
  m_UseHighQualityCurve: 1
  m_RotationCurves: []
  m_CompressedRotationCurves: []
  m_EulerCurves: []
  m_PositionCurves: []
  m_ScaleCurves: []
  m_FloatCurves: []
  m_PPtrCurves:
  - curve:
    - time: 0
      value: {fileID: 5776124881469838216, guid: 1523e05bab0670f4d985574e7f4d4c73,
        type: 3}
    - time: 0.07692308
      value: {fileID: 5845062307715035236, guid: 1523e05bab0670f4d985574e7f4d4c73,
        type: 3}
    - time: 0.15384616
      value: {fileID: 2075270072333475647, guid: 1523e05bab0670f4d985574e7f4d4c73,
        type: 3}
    - time: 0.23076923
      value: {fileID: 5485473090963439101, guid: 1523e05bab0670f4d985574e7f4d4c73,
        type: 3}
    - time: 0.30769232
      value: {fileID: -3473474138915159521, guid: 1523e05bab0670f4d985574e7f4d4c73,
        type: 3}
    - time: 0.3846154
      value: {fileID: 3409621091612952620, guid: 1523e05bab0670f4d985574e7f4d4c73,
        type: 3}
    - time: 0.46153846
      value: {fileID: -2494463628210543737, guid: 1523e05bab0670f4d985574e7f4d4c73,
        type: 3}
    - time: 0.53846157
      value: {fileID: 1793155745660400385, guid: 1523e05bab0670f4d985574e7f4d4c73,
        type: 3}
    - time: 0.61538464
      value: {fileID: -1396914646994743402, guid: 1523e05bab0670f4d985574e7f4d4c73,
        type: 3}
    - time: 0.6923077
      value: {fileID: 79110073502150809, guid: 1523e05bab0670f4d985574e7f4d4c73, type: 3}
    - time: 0.7692308
      value: {fileID: -8444718093135932600, guid: 1523e05bab0670f4d985574e7f4d4c73,
        type: 3}
    - time: 0.84615386
      value: {fileID: -5320523509008222400, guid: 1523e05bab0670f4d985574e7f4d4c73,
        type: 3}
    - time: 0.9230769
      value: {fileID: -5071015338499514089, guid: 1523e05bab0670f4d985574e7f4d4c73,
        type: 3}
    - time: 1
      value: {fileID: -2947625364915607968, guid: 1523e05bab0670f4d985574e7f4d4c73,
        type: 3}
    - time: 1.0769231
      value: {fileID: 3281070278688612815, guid: 1523e05bab0670f4d985574e7f4d4c73,
        type: 3}
    - time: 1.1538461
      value: {fileID: -3400972084718610622, guid: 1523e05bab0670f4d985574e7f4d4c73,
        type: 3}
    - time: 1.2307693
      value: {fileID: -8778058686713261700, guid: 1523e05bab0670f4d985574e7f4d4c73,
        type: 3}
    - time: 1.3076923
      value: {fileID: -6335164038342758249, guid: 1523e05bab0670f4d985574e7f4d4c73,
        type: 3}
    - time: 1.3846154
      value: {fileID: -3624970830245799207, guid: 1523e05bab0670f4d985574e7f4d4c73,
        type: 3}
    - time: 1.4615384
      value: {fileID: -3795206170483715982, guid: 1523e05bab0670f4d985574e7f4d4c73,
        type: 3}
    attribute: m_Sprite
    path: 
    classID: 212
    script: {fileID: 0}
  m_SampleRate: 13
  m_WrapMode: 0
  m_Bounds:
    m_Center: {x: 0, y: 0, z: 0}
    m_Extent: {x: 0, y: 0, z: 0}
  m_ClipBindingConstant:
    genericBindings:
    - serializedVersion: 2
      path: 0
      attribute: 0
      script: {fileID: 0}
      typeID: 212
      customType: 23
      isPPtrCurve: 1
    pptrCurveMapping:
    - {fileID: 5776124881469838216, guid: 1523e05bab0670f4d985574e7f4d4c73, type: 3}
    - {fileID: 5845062307715035236, guid: 1523e05bab0670f4d985574e7f4d4c73, type: 3}
    - {fileID: 2075270072333475647, guid: 1523e05bab0670f4d985574e7f4d4c73, type: 3}
    - {fileID: 5485473090963439101, guid: 1523e05bab0670f4d985574e7f4d4c73, type: 3}
    - {fileID: -3473474138915159521, guid: 1523e05bab0670f4d985574e7f4d4c73, type: 3}
    - {fileID: 3409621091612952620, guid: 1523e05bab0670f4d985574e7f4d4c73, type: 3}
    - {fileID: -2494463628210543737, guid: 1523e05bab0670f4d985574e7f4d4c73, type: 3}
    - {fileID: 1793155745660400385, guid: 1523e05bab0670f4d985574e7f4d4c73, type: 3}
    - {fileID: -1396914646994743402, guid: 1523e05bab0670f4d985574e7f4d4c73, type: 3}
    - {fileID: 79110073502150809, guid: 1523e05bab0670f4d985574e7f4d4c73, type: 3}
    - {fileID: -8444718093135932600, guid: 1523e05bab0670f4d985574e7f4d4c73, type: 3}
    - {fileID: -5320523509008222400, guid: 1523e05bab0670f4d985574e7f4d4c73, type: 3}
    - {fileID: -5071015338499514089, guid: 1523e05bab0670f4d985574e7f4d4c73, type: 3}
    - {fileID: -2947625364915607968, guid: 1523e05bab0670f4d985574e7f4d4c73, type: 3}
    - {fileID: 3281070278688612815, guid: 1523e05bab0670f4d985574e7f4d4c73, type: 3}
    - {fileID: -3400972084718610622, guid: 1523e05bab0670f4d985574e7f4d4c73, type: 3}
    - {fileID: -8778058686713261700, guid: 1523e05bab0670f4d985574e7f4d4c73, type: 3}
    - {fileID: -6335164038342758249, guid: 1523e05bab0670f4d985574e7f4d4c73, type: 3}
    - {fileID: -3624970830245799207, guid: 1523e05bab0670f4d985574e7f4d4c73, type: 3}
    - {fileID: -3795206170483715982, guid: 1523e05bab0670f4d985574e7f4d4c73, type: 3}
  m_AnimationClipSettings:
    serializedVersion: 2
    m_AdditiveReferencePoseClip: {fileID: 0}
    m_AdditiveReferencePoseTime: 0
    m_StartTime: 0
    m_StopTime: 1.5384616
    m_OrientationOffsetY: 0
    m_Level: 0
    m_CycleOffset: 0
    m_HasAdditiveReferencePose: 0
    m_LoopTime: 1
    m_LoopBlend: 0
    m_LoopBlendOrientation: 0
    m_LoopBlendPositionY: 0
    m_LoopBlendPositionXZ: 0
    m_KeepOriginalOrientation: 0
    m_KeepOriginalPositionY: 1
    m_KeepOriginalPositionXZ: 0
    m_HeightFromFeet: 0
    m_Mirror: 0
  m_EditorCurves: []
  m_EulerEditorCurves: []
  m_HasGenericRootTransform: 0
  m_HasMotionFloatCurves: 0
  m_Events: []
