%YAML 1.1
%TAG !u! tag:unity3d.com,2011:
--- !u!74 &7400000
AnimationClip:
  m_ObjectHideFlags: 0
  m_CorrespondingSourceObject: {fileID: 0}
  m_PrefabInstance: {fileID: 0}
  m_PrefabAsset: {fileID: 0}
  m_Name: Animation_Skill_DarknessShooter_Prepare
  serializedVersion: 6
  m_Legacy: 0
  m_Compressed: 0
  m_UseHighQualityCurve: 1
  m_RotationCurves: []
  m_CompressedRotationCurves: []
  m_EulerCurves: []
  m_PositionCurves: []
  m_ScaleCurves: []
  m_FloatCurves: []
  m_PPtrCurves:
  - curve:
    - time: 0
      value: {fileID: 5960852071345744526, guid: dd18db65a44c2dc4f995ada552f2e05a,
        type: 3}
    - time: 0.055555556
      value: {fileID: 9059797370870636357, guid: dd18db65a44c2dc4f995ada552f2e05a,
        type: 3}
    - time: 0.11111111
      value: {fileID: 8392150468219801644, guid: dd18db65a44c2dc4f995ada552f2e05a,
        type: 3}
    - time: 0.16666667
      value: {fileID: -5371375357409523500, guid: dd18db65a44c2dc4f995ada552f2e05a,
        type: 3}
    - time: 0.22222222
      value: {fileID: -3513091750319238020, guid: dd18db65a44c2dc4f995ada552f2e05a,
        type: 3}
    - time: 0.2777778
      value: {fileID: -5837935996590844387, guid: dd18db65a44c2dc4f995ada552f2e05a,
        type: 3}
    - time: 0.33333334
      value: {fileID: 1914329307370117348, guid: dd18db65a44c2dc4f995ada552f2e05a,
        type: 3}
    - time: 0.3888889
      value: {fileID: -3531658441926283079, guid: dd18db65a44c2dc4f995ada552f2e05a,
        type: 3}
    - time: 0.44444445
      value: {fileID: -5148095244431598128, guid: dd18db65a44c2dc4f995ada552f2e05a,
        type: 3}
    - time: 0.5
      value: {fileID: 5773960877585623992, guid: dd18db65a44c2dc4f995ada552f2e05a,
        type: 3}
    - time: 0.5555556
      value: {fileID: 822478554979555193, guid: dd18db65a44c2dc4f995ada552f2e05a,
        type: 3}
    - time: 0.6111111
      value: {fileID: 8977845625750838377, guid: dd18db65a44c2dc4f995ada552f2e05a,
        type: 3}
    - time: 0.6666667
      value: {fileID: 552684796295940833, guid: dd18db65a44c2dc4f995ada552f2e05a,
        type: 3}
    - time: 0.7222222
      value: {fileID: -1904326773854075994, guid: dd18db65a44c2dc4f995ada552f2e05a,
        type: 3}
    - time: 0.7777778
      value: {fileID: -6893711258146121890, guid: dd18db65a44c2dc4f995ada552f2e05a,
        type: 3}
    - time: 0.8333333
      value: {fileID: -7992499500031807866, guid: dd18db65a44c2dc4f995ada552f2e05a,
        type: 3}
    - time: 0.8888889
      value: {fileID: 7190160122197684810, guid: dd18db65a44c2dc4f995ada552f2e05a,
        type: 3}
    - time: 0.9444444
      value: {fileID: 3074617748479509432, guid: dd18db65a44c2dc4f995ada552f2e05a,
        type: 3}
    attribute: m_Sprite
    path: 
    classID: 212
    script: {fileID: 0}
  m_SampleRate: 18
  m_WrapMode: 0
  m_Bounds:
    m_Center: {x: 0, y: 0, z: 0}
    m_Extent: {x: 0, y: 0, z: 0}
  m_ClipBindingConstant:
    genericBindings:
    - serializedVersion: 2
      path: 0
      attribute: 0
      script: {fileID: 0}
      typeID: 212
      customType: 23
      isPPtrCurve: 1
    pptrCurveMapping:
    - {fileID: 5960852071345744526, guid: dd18db65a44c2dc4f995ada552f2e05a, type: 3}
    - {fileID: 9059797370870636357, guid: dd18db65a44c2dc4f995ada552f2e05a, type: 3}
    - {fileID: 8392150468219801644, guid: dd18db65a44c2dc4f995ada552f2e05a, type: 3}
    - {fileID: -5371375357409523500, guid: dd18db65a44c2dc4f995ada552f2e05a, type: 3}
    - {fileID: -3513091750319238020, guid: dd18db65a44c2dc4f995ada552f2e05a, type: 3}
    - {fileID: -5837935996590844387, guid: dd18db65a44c2dc4f995ada552f2e05a, type: 3}
    - {fileID: 1914329307370117348, guid: dd18db65a44c2dc4f995ada552f2e05a, type: 3}
    - {fileID: -3531658441926283079, guid: dd18db65a44c2dc4f995ada552f2e05a, type: 3}
    - {fileID: -5148095244431598128, guid: dd18db65a44c2dc4f995ada552f2e05a, type: 3}
    - {fileID: 5773960877585623992, guid: dd18db65a44c2dc4f995ada552f2e05a, type: 3}
    - {fileID: 822478554979555193, guid: dd18db65a44c2dc4f995ada552f2e05a, type: 3}
    - {fileID: 8977845625750838377, guid: dd18db65a44c2dc4f995ada552f2e05a, type: 3}
    - {fileID: 552684796295940833, guid: dd18db65a44c2dc4f995ada552f2e05a, type: 3}
    - {fileID: -1904326773854075994, guid: dd18db65a44c2dc4f995ada552f2e05a, type: 3}
    - {fileID: -6893711258146121890, guid: dd18db65a44c2dc4f995ada552f2e05a, type: 3}
    - {fileID: -7992499500031807866, guid: dd18db65a44c2dc4f995ada552f2e05a, type: 3}
    - {fileID: 7190160122197684810, guid: dd18db65a44c2dc4f995ada552f2e05a, type: 3}
    - {fileID: 3074617748479509432, guid: dd18db65a44c2dc4f995ada552f2e05a, type: 3}
  m_AnimationClipSettings:
    serializedVersion: 2
    m_AdditiveReferencePoseClip: {fileID: 0}
    m_AdditiveReferencePoseTime: 0
    m_StartTime: 0
    m_StopTime: 1
    m_OrientationOffsetY: 0
    m_Level: 0
    m_CycleOffset: 0
    m_HasAdditiveReferencePose: 0
    m_LoopTime: 0
    m_LoopBlend: 0
    m_LoopBlendOrientation: 0
    m_LoopBlendPositionY: 0
    m_LoopBlendPositionXZ: 0
    m_KeepOriginalOrientation: 0
    m_KeepOriginalPositionY: 1
    m_KeepOriginalPositionXZ: 0
    m_HeightFromFeet: 0
    m_Mirror: 0
  m_EditorCurves: []
  m_EulerEditorCurves: []
  m_HasGenericRootTransform: 0
  m_HasMotionFloatCurves: 0
  m_Events:
  - time: 1
    functionName: set_State
    data: 
    objectReferenceParameter: {fileID: 0}
    floatParameter: 0
    intParameter: 2
    messageOptions: 0
