%YAML 1.1
%TAG !u! tag:unity3d.com,2011:
--- !u!221 &22100000
AnimatorOverrideController:
  m_ObjectHideFlags: 0
  m_CorrespondingSourceObject: {fileID: 0}
  m_PrefabInstance: {fileID: 0}
  m_PrefabAsset: {fileID: 0}
  m_Name: AnimatorOverride_Skill_WindRush
  m_Controller: {fileID: 9100000, guid: 128921c08e7e8be4481b715e0d77b436, type: 2}
  m_Clips:
  - m_OriginalClip: {fileID: 7400000, guid: 291b4b63a774c8b4a9c7dd782390c752, type: 2}
    m_OverrideClip: {fileID: 7400000, guid: 0cb211f2683f85f45a8b9f270ddfa230, type: 2}
  - m_OriginalClip: {fileID: 7400000, guid: 2144cfd316e122f4eacb8ea36a4e72b4, type: 2}
    m_OverrideClip: {fileID: 7400000, guid: 8d0ead943b8c16f408045af26d6369b5, type: 2}
  - m_OriginalClip: {fileID: 7400000, guid: 2804eac433bc7b943a33f002f8408096, type: 2}
    m_OverrideClip: {fileID: 7400000, guid: 54c5d9b6eb981e24b93db1583525bf42, type: 2}
  - m_OriginalClip: {fileID: 7400000, guid: 5f7dad30d4b9f3c4dbd7da76cb8fa258, type: 2}
    m_OverrideClip: {fileID: 7400000, guid: 08fb3f8a23166d14e8c5cd1340939392, type: 2}
  - m_OriginalClip: {fileID: 7400000, guid: 079b9d3195fe82d488aa6826af43ce8d, type: 2}
    m_OverrideClip: {fileID: 7400000, guid: 3345e4168a75471478fa88b0ccc127bc, type: 2}
