%YAML 1.1
%TAG !u! tag:unity3d.com,2011:
--- !u!74 &7400000
AnimationClip:
  m_ObjectHideFlags: 0
  m_CorrespondingSourceObject: {fileID: 0}
  m_PrefabInstance: {fileID: 0}
  m_PrefabAsset: {fileID: 0}
  m_Name: Animation_Effect_Hit_Impact_01_Do
  serializedVersion: 6
  m_Legacy: 0
  m_Compressed: 0
  m_UseHighQualityCurve: 1
  m_RotationCurves: []
  m_CompressedRotationCurves: []
  m_EulerCurves: []
  m_PositionCurves: []
  m_ScaleCurves: []
  m_FloatCurves: []
  m_PPtrCurves:
  - curve:
    - time: 0
      value: {fileID: 4809032647898751912, guid: f9d9860e8777c634a88417d2326989e1,
        type: 3}
    - time: 0.1
      value: {fileID: -1628343391583349962, guid: f9d9860e8777c634a88417d2326989e1,
        type: 3}
    - time: 0.2
      value: {fileID: -548856019399207488, guid: f9d9860e8777c634a88417d2326989e1,
        type: 3}
    - time: 0.3
      value: {fileID: -7023494494262154833, guid: f9d9860e8777c634a88417d2326989e1,
        type: 3}
    - time: 0.4
      value: {fileID: -1516184660779827411, guid: f9d9860e8777c634a88417d2326989e1,
        type: 3}
    - time: 0.5
      value: {fileID: -1835383691427163148, guid: f9d9860e8777c634a88417d2326989e1,
        type: 3}
    - time: 0.6
      value: {fileID: 2916884438323893917, guid: f9d9860e8777c634a88417d2326989e1,
        type: 3}
    attribute: m_Sprite
    path: Main/SpriteRenderer
    classID: 212
    script: {fileID: 0}
  m_SampleRate: 10
  m_WrapMode: 0
  m_Bounds:
    m_Center: {x: 0, y: 0, z: 0}
    m_Extent: {x: 0, y: 0, z: 0}
  m_ClipBindingConstant:
    genericBindings:
    - serializedVersion: 2
      path: 4186064523
      attribute: 0
      script: {fileID: 0}
      typeID: 212
      customType: 23
      isPPtrCurve: 1
    pptrCurveMapping:
    - {fileID: 4809032647898751912, guid: f9d9860e8777c634a88417d2326989e1, type: 3}
    - {fileID: -1628343391583349962, guid: f9d9860e8777c634a88417d2326989e1, type: 3}
    - {fileID: -548856019399207488, guid: f9d9860e8777c634a88417d2326989e1, type: 3}
    - {fileID: -7023494494262154833, guid: f9d9860e8777c634a88417d2326989e1, type: 3}
    - {fileID: -1516184660779827411, guid: f9d9860e8777c634a88417d2326989e1, type: 3}
    - {fileID: -1835383691427163148, guid: f9d9860e8777c634a88417d2326989e1, type: 3}
    - {fileID: 2916884438323893917, guid: f9d9860e8777c634a88417d2326989e1, type: 3}
  m_AnimationClipSettings:
    serializedVersion: 2
    m_AdditiveReferencePoseClip: {fileID: 0}
    m_AdditiveReferencePoseTime: 0
    m_StartTime: 0
    m_StopTime: 0.70000005
    m_OrientationOffsetY: 0
    m_Level: 0
    m_CycleOffset: 0
    m_HasAdditiveReferencePose: 0
    m_LoopTime: 0
    m_LoopBlend: 0
    m_LoopBlendOrientation: 0
    m_LoopBlendPositionY: 0
    m_LoopBlendPositionXZ: 0
    m_KeepOriginalOrientation: 0
    m_KeepOriginalPositionY: 1
    m_KeepOriginalPositionXZ: 0
    m_HeightFromFeet: 0
    m_Mirror: 0
  m_EditorCurves: []
  m_EulerEditorCurves: []
  m_HasGenericRootTransform: 0
  m_HasMotionFloatCurves: 0
  m_Events:
  - time: 0.7
    functionName: Deactivate
    data: 
    objectReferenceParameter: {fileID: 0}
    floatParameter: 0
    intParameter: 0
    messageOptions: 0
