%YAML 1.1
%TAG !u! tag:unity3d.com,2011:
--- !u!74 &7400000
AnimationClip:
  m_ObjectHideFlags: 0
  m_CorrespondingSourceObject: {fileID: 0}
  m_PrefabInstance: {fileID: 0}
  m_PrefabAsset: {fileID: 0}
  m_Name: Animation_Fairy_Brandish
  serializedVersion: 6
  m_Legacy: 0
  m_Compressed: 0
  m_UseHighQualityCurve: 1
  m_RotationCurves: []
  m_CompressedRotationCurves: []
  m_EulerCurves: []
  m_PositionCurves:
  - curve:
      serializedVersion: 2
      m_Curve:
      - serializedVersion: 3
        time: 0
        value: {x: 0.19, y: -0.15, z: 0}
        inSlope: {x: 0, y: 0, z: 0}
        outSlope: {x: Infinity, y: Infinity, z: Infinity}
        tangentMode: 0
        weightedMode: 0
        inWeight: {x: 0.33333334, y: 0.33333334, z: 0.33333334}
        outWeight: {x: 0.33333334, y: 0.33333334, z: 0.33333334}
      - serializedVersion: 3
        time: 0.1
        value: {x: -0.05, y: -0.62, z: 0}
        inSlope: {x: -3.8, y: 0, z: 0}
        outSlope: {x: Infinity, y: Infinity, z: Infinity}
        tangentMode: 0
        weightedMode: 0
        inWeight: {x: 0.33333334, y: 0.33333334, z: 0.33333334}
        outWeight: {x: 0.33333334, y: 0.33333334, z: 0.33333334}
      - serializedVersion: 3
        time: 0.2
        value: {x: -0.57, y: 0.24, z: 0}
        inSlope: {x: 0, y: 0, z: 0}
        outSlope: {x: Infinity, y: Infinity, z: Infinity}
        tangentMode: 0
        weightedMode: 0
        inWeight: {x: 0.33333334, y: 0.33333334, z: 0.33333334}
        outWeight: {x: 0.33333334, y: 0.33333334, z: 0.33333334}
      - serializedVersion: 3
        time: 0.3
        value: {x: -0.02, y: 0.39, z: 0}
        inSlope: {x: 4.55, y: 0, z: 0}
        outSlope: {x: Infinity, y: Infinity, z: Infinity}
        tangentMode: 0
        weightedMode: 0
        inWeight: {x: 0.33333334, y: 0.33333334, z: 0.33333334}
        outWeight: {x: 0.33333334, y: 0.33333334, z: 0.33333334}
      - serializedVersion: 3
        time: 0.4
        value: {x: 0.31, y: 0.28, z: 0}
        inSlope: {x: 0, y: -4.4500003, z: 0}
        outSlope: {x: Infinity, y: Infinity, z: Infinity}
        tangentMode: 0
        weightedMode: 0
        inWeight: {x: 0.33333334, y: 0.33333334, z: 0.33333334}
        outWeight: {x: 0.33333334, y: 0.33333334, z: 0.33333334}
      - serializedVersion: 3
        time: 0.5
        value: {x: -0.06, y: -0.02, z: 0}
        inSlope: {x: 0, y: 0, z: 0}
        outSlope: {x: Infinity, y: Infinity, z: Infinity}
        tangentMode: 0
        weightedMode: 0
        inWeight: {x: 0.33333334, y: 0.33333334, z: 0.33333334}
        outWeight: {x: 0.33333334, y: 0.33333334, z: 0.33333334}
      - serializedVersion: 3
        time: 0.6
        value: {x: 0.19, y: 0.01, z: 0}
        inSlope: {x: 0, y: 0, z: 0}
        outSlope: {x: Infinity, y: Infinity, z: Infinity}
        tangentMode: 0
        weightedMode: 0
        inWeight: {x: 0.33333334, y: 0.33333334, z: 0.33333334}
        outWeight: {x: 0.33333334, y: 0.33333334, z: 0.33333334}
      - serializedVersion: 3
        time: 0.7
        value: {x: 0.08, y: 0.01, z: 0}
        inSlope: {x: 0, y: 0, z: 0}
        outSlope: {x: Infinity, y: Infinity, z: Infinity}
        tangentMode: 0
        weightedMode: 0
        inWeight: {x: 0.33333334, y: 0.33333334, z: 0.33333334}
        outWeight: {x: 0.33333334, y: 0.33333334, z: 0.33333334}
      - serializedVersion: 3
        time: 0.8
        value: {x: 0.08, y: 0.01, z: 0}
        inSlope: {x: 0, y: 0, z: 0}
        outSlope: {x: Infinity, y: Infinity, z: Infinity}
        tangentMode: 0
        weightedMode: 0
        inWeight: {x: 0.33333334, y: 0.33333334, z: 0.33333334}
        outWeight: {x: 0.33333334, y: 0.33333334, z: 0.33333334}
      m_PreInfinity: 2
      m_PostInfinity: 2
      m_RotationOrder: 4
    path: EyeHolder/EyeRenderer
  m_ScaleCurves: []
  m_FloatCurves: []
  m_PPtrCurves:
  - curve:
    - time: 0
      value: {fileID: -7613068673772340550, guid: a364d0690fc97e4498aba5bda2864460,
        type: 3}
    - time: 0.1
      value: {fileID: -650460905775913546, guid: a364d0690fc97e4498aba5bda2864460,
        type: 3}
    - time: 0.2
      value: {fileID: 6607684632288270592, guid: a364d0690fc97e4498aba5bda2864460,
        type: 3}
    - time: 0.3
      value: {fileID: -2488871643689322676, guid: a364d0690fc97e4498aba5bda2864460,
        type: 3}
    - time: 0.4
      value: {fileID: -4997770383238564118, guid: a364d0690fc97e4498aba5bda2864460,
        type: 3}
    - time: 0.5
      value: {fileID: -8115142727892748983, guid: a364d0690fc97e4498aba5bda2864460,
        type: 3}
    - time: 0.6
      value: {fileID: -5695957894551107803, guid: a364d0690fc97e4498aba5bda2864460,
        type: 3}
    - time: 0.7
      value: {fileID: -4503383923406614626, guid: a364d0690fc97e4498aba5bda2864460,
        type: 3}
    - time: 0.8
      value: {fileID: -4503383923406614626, guid: a364d0690fc97e4498aba5bda2864460,
        type: 3}
    attribute: m_Sprite
    path: Main
    classID: 212
    script: {fileID: 0}
  - curve:
    - time: 0
      value: {fileID: -1630799117371292778, guid: f71ef9d514a373d46a9bd748ad071bbc,
        type: 3}
    - time: 0.2
      value: {fileID: 0}
    - time: 0.4
      value: {fileID: -1630799117371292778, guid: f71ef9d514a373d46a9bd748ad071bbc,
        type: 3}
    - time: 0.5
      value: {fileID: 8716571196845592011, guid: f71ef9d514a373d46a9bd748ad071bbc,
        type: 3}
    - time: 0.6
      value: {fileID: 8716571196845592011, guid: f71ef9d514a373d46a9bd748ad071bbc,
        type: 3}
    attribute: m_Sprite
    path: EyeHolder/EyeRenderer
    classID: 212
    script: {fileID: 0}
  m_SampleRate: 10
  m_WrapMode: 0
  m_Bounds:
    m_Center: {x: 0, y: 0, z: 0}
    m_Extent: {x: 0, y: 0, z: 0}
  m_ClipBindingConstant:
    genericBindings:
    - serializedVersion: 2
      path: 2049820120
      attribute: 1
      script: {fileID: 0}
      typeID: 4
      customType: 0
      isPPtrCurve: 0
    - serializedVersion: 2
      path: 521822810
      attribute: 0
      script: {fileID: 0}
      typeID: 212
      customType: 23
      isPPtrCurve: 1
    - serializedVersion: 2
      path: 2049820120
      attribute: 0
      script: {fileID: 0}
      typeID: 212
      customType: 23
      isPPtrCurve: 1
    pptrCurveMapping:
    - {fileID: -7613068673772340550, guid: a364d0690fc97e4498aba5bda2864460, type: 3}
    - {fileID: -650460905775913546, guid: a364d0690fc97e4498aba5bda2864460, type: 3}
    - {fileID: 6607684632288270592, guid: a364d0690fc97e4498aba5bda2864460, type: 3}
    - {fileID: -2488871643689322676, guid: a364d0690fc97e4498aba5bda2864460, type: 3}
    - {fileID: -4997770383238564118, guid: a364d0690fc97e4498aba5bda2864460, type: 3}
    - {fileID: -8115142727892748983, guid: a364d0690fc97e4498aba5bda2864460, type: 3}
    - {fileID: -5695957894551107803, guid: a364d0690fc97e4498aba5bda2864460, type: 3}
    - {fileID: -4503383923406614626, guid: a364d0690fc97e4498aba5bda2864460, type: 3}
    - {fileID: -4503383923406614626, guid: a364d0690fc97e4498aba5bda2864460, type: 3}
    - {fileID: -1630799117371292778, guid: f71ef9d514a373d46a9bd748ad071bbc, type: 3}
    - {fileID: 0}
    - {fileID: -1630799117371292778, guid: f71ef9d514a373d46a9bd748ad071bbc, type: 3}
    - {fileID: 8716571196845592011, guid: f71ef9d514a373d46a9bd748ad071bbc, type: 3}
    - {fileID: 8716571196845592011, guid: f71ef9d514a373d46a9bd748ad071bbc, type: 3}
  m_AnimationClipSettings:
    serializedVersion: 2
    m_AdditiveReferencePoseClip: {fileID: 0}
    m_AdditiveReferencePoseTime: 0
    m_StartTime: 0
    m_StopTime: 0.90000004
    m_OrientationOffsetY: 0
    m_Level: 0
    m_CycleOffset: 0
    m_HasAdditiveReferencePose: 0
    m_LoopTime: 1
    m_LoopBlend: 0
    m_LoopBlendOrientation: 0
    m_LoopBlendPositionY: 0
    m_LoopBlendPositionXZ: 0
    m_KeepOriginalOrientation: 0
    m_KeepOriginalPositionY: 1
    m_KeepOriginalPositionXZ: 0
    m_HeightFromFeet: 0
    m_Mirror: 0
  m_EditorCurves:
  - curve:
      serializedVersion: 2
      m_Curve:
      - serializedVersion: 3
        time: 0
        value: 0.19
        inSlope: 0
        outSlope: Infinity
        tangentMode: 97
        weightedMode: 0
        inWeight: 0.33333334
        outWeight: 0.33333334
      - serializedVersion: 3
        time: 0.1
        value: -0.05
        inSlope: -3.8
        outSlope: Infinity
        tangentMode: 97
        weightedMode: 0
        inWeight: 0.33333334
        outWeight: 0.33333334
      - serializedVersion: 3
        time: 0.2
        value: -0.57
        inSlope: 0
        outSlope: Infinity
        tangentMode: 97
        weightedMode: 0
        inWeight: 0.33333334
        outWeight: 0.33333334
      - serializedVersion: 3
        time: 0.3
        value: -0.02
        inSlope: 4.55
        outSlope: Infinity
        tangentMode: 97
        weightedMode: 0
        inWeight: 0.33333334
        outWeight: 0.33333334
      - serializedVersion: 3
        time: 0.4
        value: 0.31
        inSlope: 0
        outSlope: Infinity
        tangentMode: 97
        weightedMode: 0
        inWeight: 0.33333334
        outWeight: 0.33333334
      - serializedVersion: 3
        time: 0.5
        value: -0.06
        inSlope: 0
        outSlope: Infinity
        tangentMode: 97
        weightedMode: 0
        inWeight: 0.33333334
        outWeight: 0.33333334
      - serializedVersion: 3
        time: 0.6
        value: 0.19
        inSlope: 0
        outSlope: Infinity
        tangentMode: 97
        weightedMode: 0
        inWeight: 0.33333334
        outWeight: 0.33333334
      - serializedVersion: 3
        time: 0.7
        value: 0.08
        inSlope: 0
        outSlope: Infinity
        tangentMode: 97
        weightedMode: 0
        inWeight: 0.33333334
        outWeight: 0.33333334
      - serializedVersion: 3
        time: 0.8
        value: 0.08
        inSlope: 0
        outSlope: Infinity
        tangentMode: 97
        weightedMode: 0
        inWeight: 0.33333334
        outWeight: 0.33333334
      m_PreInfinity: 2
      m_PostInfinity: 2
      m_RotationOrder: 4
    attribute: m_LocalPosition.x
    path: EyeHolder/EyeRenderer
    classID: 4
    script: {fileID: 0}
  - curve:
      serializedVersion: 2
      m_Curve:
      - serializedVersion: 3
        time: 0
        value: -0.15
        inSlope: 0
        outSlope: Infinity
        tangentMode: 97
        weightedMode: 0
        inWeight: 0.33333334
        outWeight: 0.33333334
      - serializedVersion: 3
        time: 0.1
        value: -0.62
        inSlope: 0
        outSlope: Infinity
        tangentMode: 97
        weightedMode: 0
        inWeight: 0.33333334
        outWeight: 0.33333334
      - serializedVersion: 3
        time: 0.2
        value: 0.24
        inSlope: 0
        outSlope: Infinity
        tangentMode: 97
        weightedMode: 0
        inWeight: 0.33333334
        outWeight: 0.33333334
      - serializedVersion: 3
        time: 0.3
        value: 0.39
        inSlope: 0
        outSlope: Infinity
        tangentMode: 97
        weightedMode: 0
        inWeight: 0.33333334
        outWeight: 0.33333334
      - serializedVersion: 3
        time: 0.4
        value: 0.28
        inSlope: -4.4500003
        outSlope: Infinity
        tangentMode: 97
        weightedMode: 0
        inWeight: 0.33333334
        outWeight: 0.33333334
      - serializedVersion: 3
        time: 0.5
        value: -0.02
        inSlope: 0
        outSlope: Infinity
        tangentMode: 97
        weightedMode: 0
        inWeight: 0.33333334
        outWeight: 0.33333334
      - serializedVersion: 3
        time: 0.6
        value: 0.01
        inSlope: 0
        outSlope: Infinity
        tangentMode: 97
        weightedMode: 0
        inWeight: 0.33333334
        outWeight: 0.33333334
      - serializedVersion: 3
        time: 0.7
        value: 0.01
        inSlope: 0
        outSlope: Infinity
        tangentMode: 97
        weightedMode: 0
        inWeight: 0.33333334
        outWeight: 0.33333334
      - serializedVersion: 3
        time: 0.8
        value: 0.01
        inSlope: 0
        outSlope: Infinity
        tangentMode: 97
        weightedMode: 0
        inWeight: 0.33333334
        outWeight: 0.33333334
      m_PreInfinity: 2
      m_PostInfinity: 2
      m_RotationOrder: 4
    attribute: m_LocalPosition.y
    path: EyeHolder/EyeRenderer
    classID: 4
    script: {fileID: 0}
  - curve:
      serializedVersion: 2
      m_Curve:
      - serializedVersion: 3
        time: 0
        value: 0
        inSlope: 0
        outSlope: Infinity
        tangentMode: 97
        weightedMode: 0
        inWeight: 0.33333334
        outWeight: 0.33333334
      - serializedVersion: 3
        time: 0.1
        value: 0
        inSlope: 0
        outSlope: Infinity
        tangentMode: 97
        weightedMode: 0
        inWeight: 0.33333334
        outWeight: 0.33333334
      - serializedVersion: 3
        time: 0.2
        value: 0
        inSlope: 0
        outSlope: Infinity
        tangentMode: 97
        weightedMode: 0
        inWeight: 0.33333334
        outWeight: 0.33333334
      - serializedVersion: 3
        time: 0.3
        value: 0
        inSlope: 0
        outSlope: Infinity
        tangentMode: 97
        weightedMode: 0
        inWeight: 0.33333334
        outWeight: 0.33333334
      - serializedVersion: 3
        time: 0.4
        value: 0
        inSlope: 0
        outSlope: Infinity
        tangentMode: 97
        weightedMode: 0
        inWeight: 0.33333334
        outWeight: 0.33333334
      - serializedVersion: 3
        time: 0.5
        value: 0
        inSlope: 0
        outSlope: Infinity
        tangentMode: 97
        weightedMode: 0
        inWeight: 0.33333334
        outWeight: 0.33333334
      - serializedVersion: 3
        time: 0.6
        value: 0
        inSlope: 0
        outSlope: Infinity
        tangentMode: 97
        weightedMode: 0
        inWeight: 0.33333334
        outWeight: 0.33333334
      - serializedVersion: 3
        time: 0.7
        value: 0
        inSlope: 0
        outSlope: Infinity
        tangentMode: 97
        weightedMode: 0
        inWeight: 0.33333334
        outWeight: 0.33333334
      - serializedVersion: 3
        time: 0.8
        value: 0
        inSlope: 0
        outSlope: Infinity
        tangentMode: 97
        weightedMode: 0
        inWeight: 0.33333334
        outWeight: 0.33333334
      m_PreInfinity: 2
      m_PostInfinity: 2
      m_RotationOrder: 4
    attribute: m_LocalPosition.z
    path: EyeHolder/EyeRenderer
    classID: 4
    script: {fileID: 0}
  m_EulerEditorCurves: []
  m_HasGenericRootTransform: 0
  m_HasMotionFloatCurves: 0
  m_Events:
  - time: 0.8
    functionName: set_State
    data: 
    objectReferenceParameter: {fileID: 0}
    floatParameter: 0
    intParameter: 0
    messageOptions: 0
