%YAML 1.1
%TAG !u! tag:unity3d.com,2011:
--- !u!221 &22100000
AnimatorOverrideController:
  m_ObjectHideFlags: 0
  m_CorrespondingSourceObject: {fileID: 0}
  m_PrefabInstance: {fileID: 0}
  m_PrefabAsset: {fileID: 0}
  m_Name: AnimatorOverride_Monster_Middle_Summoner_EmpireMachineGargoyle
  m_Controller: {fileID: 9100000, guid: 853bf3014494dce4ab06e1bd98496e98, type: 2}
  m_Clips:
  - m_OriginalClip: {fileID: 7400000, guid: 68d240722e7d52742be016c7f3dce62e, type: 2}
    m_OverrideClip: {fileID: 7400000, guid: c777e7e66ae0a674bb438898f39aa9bf, type: 2}
  - m_OriginalClip: {fileID: 7400000, guid: 310476817931e2541a461cda782d0bd0, type: 2}
    m_OverrideClip: {fileID: 7400000, guid: 6baa20bc5c94aba41a18a1a2da3e5c43, type: 2}
  - m_OriginalClip: {fileID: 7400000, guid: f38670325cdf8b74489fa4b0c90cf00b, type: 2}
    m_OverrideClip: {fileID: 7400000, guid: e43775fc54cae5043b41ea47f598055e, type: 2}
  - m_OriginalClip: {fileID: 7400000, guid: 803e54ec66ae8be4d961015e1674ed3a, type: 2}
    m_OverrideClip: {fileID: 7400000, guid: 717e266b2030094469401efbb94155c4, type: 2}
  - m_OriginalClip: {fileID: 7400000, guid: b99c66e2cc3f75149afcbed3cc2c7244, type: 2}
    m_OverrideClip: {fileID: 7400000, guid: 34d04d351a13ecb4ba459387b9c57698, type: 2}
  - m_OriginalClip: {fileID: 7400000, guid: c4d316b5bb3565a4bbc724eb276f110c, type: 2}
    m_OverrideClip: {fileID: 7400000, guid: 968a2aeb2ec630e4fa1aa1257a89d353, type: 2}
  - m_OriginalClip: {fileID: 7400000, guid: 2577d870eaba3dd4c9b87ea7d51a7ebd, type: 2}
    m_OverrideClip: {fileID: 7400000, guid: c3b87507f6204ea49b8b0544d3c56ddb, type: 2}
  - m_OriginalClip: {fileID: 7400000, guid: e9b09b992a3bddf4aa5a397f54c2900f, type: 2}
    m_OverrideClip: {fileID: 7400000, guid: bb2141a0dcce895428b49e1c65b63a75, type: 2}
  - m_OriginalClip: {fileID: 7400000, guid: c777e7e66ae0a674bb438898f39aa9bf, type: 2}
    m_OverrideClip: {fileID: 7400000, guid: 2090f2301b2df36428e6e3160e78d106, type: 2}
  - m_OriginalClip: {fileID: 7400000, guid: 6baa20bc5c94aba41a18a1a2da3e5c43, type: 2}
    m_OverrideClip: {fileID: 7400000, guid: d2df104d8d682bc41976a986b54178c0, type: 2}
  - m_OriginalClip: {fileID: 7400000, guid: e43775fc54cae5043b41ea47f598055e, type: 2}
    m_OverrideClip: {fileID: 7400000, guid: 9ed4e291043e0064786df7e86e09711c, type: 2}
  - m_OriginalClip: {fileID: 7400000, guid: 717e266b2030094469401efbb94155c4, type: 2}
    m_OverrideClip: {fileID: 7400000, guid: 361fe3969386c9640af2169e2aa47631, type: 2}
  - m_OriginalClip: {fileID: 7400000, guid: 34d04d351a13ecb4ba459387b9c57698, type: 2}
    m_OverrideClip: {fileID: 7400000, guid: e2d225f2eb3ddec49bb0ccc3c973ed06, type: 2}
  - m_OriginalClip: {fileID: 7400000, guid: 968a2aeb2ec630e4fa1aa1257a89d353, type: 2}
    m_OverrideClip: {fileID: 7400000, guid: 557ee482e410ca44aa4d0fb3861fcba1, type: 2}
  - m_OriginalClip: {fileID: 7400000, guid: c3b87507f6204ea49b8b0544d3c56ddb, type: 2}
    m_OverrideClip: {fileID: 7400000, guid: 1e0a401d1724c02479ae9d4ff240d0cf, type: 2}
  - m_OriginalClip: {fileID: 7400000, guid: bb2141a0dcce895428b49e1c65b63a75, type: 2}
    m_OverrideClip: {fileID: 7400000, guid: eaf87fde99f344a4f92378767210bbc0, type: 2}
