%YAML 1.1
%TAG !u! tag:unity3d.com,2011:
--- !u!687078895 &4343727234628468602
SpriteAtlas:
  m_ObjectHideFlags: 0
  m_CorrespondingSourceObject: {fileID: 0}
  m_PrefabInstance: {fileID: 0}
  m_PrefabAsset: {fileID: 0}
  m_Name: MinimapAtlas
  m_EditorData:
    serializedVersion: 2
    textureSettings:
      serializedVersion: 2
      anisoLevel: 1
      compressionQuality: 50
      maxTextureSize: 2048
      textureCompression: 0
      filterMode: 0
      generateMipMaps: 0
      readable: 0
      crunchedCompression: 0
      sRGB: 1
    platformSettings:
    - serializedVersion: 2
      m_BuildTarget: DefaultTexturePlatform
      m_MaxTextureSize: 2048
      m_ResizeAlgorithm: 0
      m_TextureFormat: -1
      m_TextureCompression: 0
      m_CompressionQuality: 50
      m_CrunchedCompression: 0
      m_AllowsAlphaSplitting: 0
      m_Overridden: 0
      m_AndroidETC2FallbackOverride: 0
    packingSettings:
      serializedVersion: 2
      padding: 4
      blockOffset: 1
      allowAlphaSplitting: 0
      enableRotation: 1
      enableTightPacking: 1
    variantMultiplier: 1
    packables:
    - {fileID: 2800000, guid: d876277765ca8974e956d8a6d69f97e2, type: 3}
    - {fileID: 2800000, guid: 3f6de38fab2cca54ea77498910c53bd7, type: 3}
    - {fileID: 2800000, guid: 435e9904687e6824c822d41a65bec6c1, type: 3}
    - {fileID: 2800000, guid: aeb80cbc7b2f46448a9a1e9f4ef08b34, type: 3}
    - {fileID: 2800000, guid: c907ca6fc1678fe4aa8668f6387e940d, type: 3}
    - {fileID: 2800000, guid: 34d5eb6490e5bb54b91d7750aa14dde4, type: 3}
    - {fileID: 2800000, guid: 7796e55b5b2d6e4409b90b72e4658b74, type: 3}
    - {fileID: 2800000, guid: 7df8f56afa7af454bbf66dfdd67af25c, type: 3}
    - {fileID: 2800000, guid: 48073b74d281b314c9035189ca36e854, type: 3}
    totalSpriteSurfaceArea: 14055
    bindAsDefault: 1
  m_MasterAtlas: {fileID: 0}
  m_PackedSprites:
  - {fileID: 21300000, guid: 435e9904687e6824c822d41a65bec6c1, type: 3}
  - {fileID: 21300000, guid: 34d5eb6490e5bb54b91d7750aa14dde4, type: 3}
  - {fileID: 21300000, guid: 48073b74d281b314c9035189ca36e854, type: 3}
  - {fileID: 21300000, guid: d876277765ca8974e956d8a6d69f97e2, type: 3}
  - {fileID: 21300000, guid: 7df8f56afa7af454bbf66dfdd67af25c, type: 3}
  - {fileID: 21300000, guid: 7796e55b5b2d6e4409b90b72e4658b74, type: 3}
  - {fileID: 21300000, guid: aeb80cbc7b2f46448a9a1e9f4ef08b34, type: 3}
  - {fileID: 21300000, guid: c907ca6fc1678fe4aa8668f6387e940d, type: 3}
  - {fileID: 21300000, guid: 3f6de38fab2cca54ea77498910c53bd7, type: 3}
  m_PackedSpriteNamesToIndex:
  - minimap_bottom
  - minimap_marker
  - minimap_wall
  - minimap_background
  - minimap_spirit_marker
  - minimap_shop_marker
  - minimap_bottom_Long
  - minimap_corner
  - minimap_background_Long
  m_Tag: MinimapAtlas
  m_IsVariant: 0
