%YAML 1.1
%TAG !u! tag:unity3d.com,2011:
--- !u!74 &7400000
AnimationClip:
  m_ObjectHideFlags: 0
  m_CorrespondingSourceObject: {fileID: 0}
  m_PrefabInstance: {fileID: 0}
  m_PrefabAsset: {fileID: 0}
  m_Name: Animation_Hit_Effect_Circle_01_Do
  serializedVersion: 6
  m_Legacy: 0
  m_Compressed: 0
  m_UseHighQualityCurve: 1
  m_RotationCurves: []
  m_CompressedRotationCurves: []
  m_EulerCurves: []
  m_PositionCurves: []
  m_ScaleCurves: []
  m_FloatCurves: []
  m_PPtrCurves:
  - curve:
    - time: 0
      value: {fileID: -8113719211870034718, guid: 0e6017e8baf708d448a9f5f1dbc945ed,
        type: 3}
    - time: 0.033333335
      value: {fileID: -708384545959072648, guid: 0e6017e8baf708d448a9f5f1dbc945ed,
        type: 3}
    - time: 0.06666667
      value: {fileID: -4072647111423975602, guid: 0e6017e8baf708d448a9f5f1dbc945ed,
        type: 3}
    - time: 0.1
      value: {fileID: 7736656164901984797, guid: 0e6017e8baf708d448a9f5f1dbc945ed,
        type: 3}
    - time: 0.13333334
      value: {fileID: -7654972832178863206, guid: 0e6017e8baf708d448a9f5f1dbc945ed,
        type: 3}
    - time: 0.16666667
      value: {fileID: 2338579335467469245, guid: 0e6017e8baf708d448a9f5f1dbc945ed,
        type: 3}
    - time: 0.2
      value: {fileID: 4954090111718137562, guid: 0e6017e8baf708d448a9f5f1dbc945ed,
        type: 3}
    - time: 0.23333333
      value: {fileID: 3888643572630816317, guid: 0e6017e8baf708d448a9f5f1dbc945ed,
        type: 3}
    attribute: m_Sprite
    path: Main/SpriteRenderer
    classID: 212
    script: {fileID: 0}
  m_SampleRate: 30
  m_WrapMode: 0
  m_Bounds:
    m_Center: {x: 0, y: 0, z: 0}
    m_Extent: {x: 0, y: 0, z: 0}
  m_ClipBindingConstant:
    genericBindings:
    - serializedVersion: 2
      path: 4186064523
      attribute: 0
      script: {fileID: 0}
      typeID: 212
      customType: 23
      isPPtrCurve: 1
    pptrCurveMapping:
    - {fileID: -8113719211870034718, guid: 0e6017e8baf708d448a9f5f1dbc945ed, type: 3}
    - {fileID: -708384545959072648, guid: 0e6017e8baf708d448a9f5f1dbc945ed, type: 3}
    - {fileID: -4072647111423975602, guid: 0e6017e8baf708d448a9f5f1dbc945ed, type: 3}
    - {fileID: 7736656164901984797, guid: 0e6017e8baf708d448a9f5f1dbc945ed, type: 3}
    - {fileID: -7654972832178863206, guid: 0e6017e8baf708d448a9f5f1dbc945ed, type: 3}
    - {fileID: 2338579335467469245, guid: 0e6017e8baf708d448a9f5f1dbc945ed, type: 3}
    - {fileID: 4954090111718137562, guid: 0e6017e8baf708d448a9f5f1dbc945ed, type: 3}
    - {fileID: 3888643572630816317, guid: 0e6017e8baf708d448a9f5f1dbc945ed, type: 3}
  m_AnimationClipSettings:
    serializedVersion: 2
    m_AdditiveReferencePoseClip: {fileID: 0}
    m_AdditiveReferencePoseTime: 0
    m_StartTime: 0
    m_StopTime: 0.26666668
    m_OrientationOffsetY: 0
    m_Level: 0
    m_CycleOffset: 0
    m_HasAdditiveReferencePose: 0
    m_LoopTime: 0
    m_LoopBlend: 0
    m_LoopBlendOrientation: 0
    m_LoopBlendPositionY: 0
    m_LoopBlendPositionXZ: 0
    m_KeepOriginalOrientation: 0
    m_KeepOriginalPositionY: 1
    m_KeepOriginalPositionXZ: 0
    m_HeightFromFeet: 0
    m_Mirror: 0
  m_EditorCurves: []
  m_EulerEditorCurves: []
  m_HasGenericRootTransform: 0
  m_HasMotionFloatCurves: 0
  m_Events:
  - time: 0.26666668
    functionName: Deactivate
    data: 
    objectReferenceParameter: {fileID: 0}
    floatParameter: 0
    intParameter: 0
    messageOptions: 0
