%YAML 1.1
%TAG !u! tag:unity3d.com,2011:
--- !u!74 &7400000
AnimationClip:
  m_ObjectHideFlags: 0
  m_CorrespondingSourceObject: {fileID: 0}
  m_PrefabInstance: {fileID: 0}
  m_PrefabAsset: {fileID: 0}
  m_Name: Animation_Giant_Die_Start
  serializedVersion: 6
  m_Legacy: 0
  m_Compressed: 0
  m_UseHighQualityCurve: 1
  m_RotationCurves: []
  m_CompressedRotationCurves: []
  m_EulerCurves: []
  m_PositionCurves: []
  m_ScaleCurves: []
  m_FloatCurves: []
  m_PPtrCurves:
  - curve:
    - time: 0
      value: {fileID: -1793946084885713904, guid: 81c15fa18b7c79246bdf8d35e6312d6b,
        type: 3}
    - time: 0.1
      value: {fileID: 8829319918464081109, guid: 81c15fa18b7c79246bdf8d35e6312d6b,
        type: 3}
    - time: 0.2
      value: {fileID: -7701014983091091411, guid: 81c15fa18b7c79246bdf8d35e6312d6b,
        type: 3}
    - time: 0.3
      value: {fileID: 2675650659097271621, guid: 81c15fa18b7c79246bdf8d35e6312d6b,
        type: 3}
    - time: 0.4
      value: {fileID: -2313120868563189980, guid: 81c15fa18b7c79246bdf8d35e6312d6b,
        type: 3}
    - time: 0.5
      value: {fileID: -1859205883037894361, guid: 81c15fa18b7c79246bdf8d35e6312d6b,
        type: 3}
    - time: 0.6
      value: {fileID: 678380830654480016, guid: 81c15fa18b7c79246bdf8d35e6312d6b,
        type: 3}
    - time: 0.7
      value: {fileID: -5371485149413090727, guid: 81c15fa18b7c79246bdf8d35e6312d6b,
        type: 3}
    - time: 0.8
      value: {fileID: 6520849742580528382, guid: 81c15fa18b7c79246bdf8d35e6312d6b,
        type: 3}
    - time: 0.9
      value: {fileID: 1275040296971085118, guid: 81c15fa18b7c79246bdf8d35e6312d6b,
        type: 3}
    - time: 1
      value: {fileID: -7609559418458288791, guid: 81c15fa18b7c79246bdf8d35e6312d6b,
        type: 3}
    - time: 1.1
      value: {fileID: -8959730593662090722, guid: 81c15fa18b7c79246bdf8d35e6312d6b,
        type: 3}
    - time: 1.2
      value: {fileID: -3525689169228819772, guid: 81c15fa18b7c79246bdf8d35e6312d6b,
        type: 3}
    - time: 1.3
      value: {fileID: 2810357993271919840, guid: 81c15fa18b7c79246bdf8d35e6312d6b,
        type: 3}
    - time: 1.4
      value: {fileID: -3725663351720975087, guid: 81c15fa18b7c79246bdf8d35e6312d6b,
        type: 3}
    - time: 1.5
      value: {fileID: -3804217921720290737, guid: 81c15fa18b7c79246bdf8d35e6312d6b,
        type: 3}
    attribute: m_Sprite
    path: Main
    classID: 212
    script: {fileID: 0}
  m_SampleRate: 10
  m_WrapMode: 0
  m_Bounds:
    m_Center: {x: 0, y: 0, z: 0}
    m_Extent: {x: 0, y: 0, z: 0}
  m_ClipBindingConstant:
    genericBindings:
    - serializedVersion: 2
      path: 521822810
      attribute: 0
      script: {fileID: 0}
      typeID: 212
      customType: 23
      isPPtrCurve: 1
    pptrCurveMapping:
    - {fileID: -1793946084885713904, guid: 81c15fa18b7c79246bdf8d35e6312d6b, type: 3}
    - {fileID: 8829319918464081109, guid: 81c15fa18b7c79246bdf8d35e6312d6b, type: 3}
    - {fileID: -7701014983091091411, guid: 81c15fa18b7c79246bdf8d35e6312d6b, type: 3}
    - {fileID: 2675650659097271621, guid: 81c15fa18b7c79246bdf8d35e6312d6b, type: 3}
    - {fileID: -2313120868563189980, guid: 81c15fa18b7c79246bdf8d35e6312d6b, type: 3}
    - {fileID: -1859205883037894361, guid: 81c15fa18b7c79246bdf8d35e6312d6b, type: 3}
    - {fileID: 678380830654480016, guid: 81c15fa18b7c79246bdf8d35e6312d6b, type: 3}
    - {fileID: -5371485149413090727, guid: 81c15fa18b7c79246bdf8d35e6312d6b, type: 3}
    - {fileID: 6520849742580528382, guid: 81c15fa18b7c79246bdf8d35e6312d6b, type: 3}
    - {fileID: 1275040296971085118, guid: 81c15fa18b7c79246bdf8d35e6312d6b, type: 3}
    - {fileID: -7609559418458288791, guid: 81c15fa18b7c79246bdf8d35e6312d6b, type: 3}
    - {fileID: -8959730593662090722, guid: 81c15fa18b7c79246bdf8d35e6312d6b, type: 3}
    - {fileID: -3525689169228819772, guid: 81c15fa18b7c79246bdf8d35e6312d6b, type: 3}
    - {fileID: 2810357993271919840, guid: 81c15fa18b7c79246bdf8d35e6312d6b, type: 3}
    - {fileID: -3725663351720975087, guid: 81c15fa18b7c79246bdf8d35e6312d6b, type: 3}
    - {fileID: -3804217921720290737, guid: 81c15fa18b7c79246bdf8d35e6312d6b, type: 3}
  m_AnimationClipSettings:
    serializedVersion: 2
    m_AdditiveReferencePoseClip: {fileID: 0}
    m_AdditiveReferencePoseTime: 0
    m_StartTime: 0
    m_StopTime: 1.6
    m_OrientationOffsetY: 0
    m_Level: 0
    m_CycleOffset: 0
    m_HasAdditiveReferencePose: 0
    m_LoopTime: 0
    m_LoopBlend: 0
    m_LoopBlendOrientation: 0
    m_LoopBlendPositionY: 0
    m_LoopBlendPositionXZ: 0
    m_KeepOriginalOrientation: 0
    m_KeepOriginalPositionY: 1
    m_KeepOriginalPositionXZ: 0
    m_HeightFromFeet: 0
    m_Mirror: 0
  m_EditorCurves: []
  m_EulerEditorCurves: []
  m_HasGenericRootTransform: 0
  m_HasMotionFloatCurves: 0
  m_Events: []
